…
**An advice** To perform any action on the whole dataset again, use the
*ungroup()* function.

**Ex 25. Using pipeline, group_by() function and *my_data* data frame,
create a new column with the deviations of *Glycogen* values from the
arithmetic mean in a given *Treatment*.**  
Expected result:

    # A tibble: 36 × 6
    # Groups:   Treatment [3]
          ID Glycogen Treatment   Rat Liver Deviations
       <int>    <int>     <int> <int> <int>      <dbl>
     1     1      131         1     1     1        9.5
     2     2      130         1     1     1       10.5
     3     3      131         1     1     2        9.5
     4     4      125         1     1     2       15.5
     5     5      136         1     1     3        4.5
     6     6      142         1     1     3        1.5
     7     7      150         1     2     1        9.5
     8     8      148         1     2     1        7.5
     9     9      140         1     2     2        0.5
    10    10      143         1     2     2        2.5
    # … with 26 more rows
…
